…
Search by spatial extent:

``` r
pgsearch("World")$in_spatial_extent[, c("source_name", "spatial_extent")]
#> # A tibble: 46 × 2
#>    source_name                                           spatial_extent
#>    <chr>                                                 <chr>         
#>  1 EOG Annual VIIRS Nighttime Lights                     World         
#>  2 Global Area Equipped for Irrigation Dataset 1900-2015 World         
#>  3 GlobalDataLab Area Database                           World         
#>  4 SEDAC Global Subnational Infant Mortality Rates       World         
#>  5 Li Nighttime                                          World         
#>  6 World Bank Global Subnational Poverty Atlas (GSAP)    World         
#>  7 ETH ICR EPR Core                                      World         
#>  8 UCDP GED                                              World         
#>  9 ETH ICR GeoEPR                                        World         
#> 10 WIDE Education Inequalities                           World         
#> # ℹ 36 more rows
```
…
